{
    "rulesDirectory": [
        "node_modules/codelyzer"
    ],
    "extends": [
        "tslint-eslint-rules"
    ],
    "rules": {
        "align": [
            true,
            "parameters",
            "arguments",
            "statements",
            "members",
            "elements"
        ],
        "arrow-return-shorthand": true,
        "callable-types": true,
        "class-name": true,
        "comment-format": [
            true,
            "check-space"
        ],
        "brace-style": [
            true,
            "allman",
            {
                "allowSingleLine": false
            }
        ],
        "curly": true,
        "deprecation": {
            "severity": "warn"
        },
        "eofline": true,
        "forin": true,
        "import-spacing": false,
        "indent": [
            true,
            "spaces"
        ],
        "interface-over-type-literal": true,
        "label-position": true,
        "max-line-length": false,
        "member-access": false,
        "member-ordering": [
            true,
            {
                "order": [
                    "static-field",
                    "instance-field",
                    "static-method",
                    "instance-method"
                ]
            }
        ],
        "no-arg": true,
        "no-bitwise": true,
        "no-console": [
            true,
            "debug",
            "info",
            "time",
            "timeEnd",
            "trace"
        ],
        "no-construct": true,
        "no-debugger": true,
        "no-duplicate-super": true,
        "no-empty": false,
        "no-empty-interface": true,
        "no-eval": true,
        "no-inferrable-types": [
            false,
            "ignore-params"
        ],
        "no-misused-new": true,
        "no-non-null-assertion": true,
        "no-shadowed-variable": true,
        "no-string-literal": false,
        "no-string-throw": true,
        "no-switch-case-fall-through": true,
        "no-trailing-whitespace": true,
        "no-unnecessary-initializer": true,
        "no-unused-expression": true,
        "no-var-keyword": true,
        "object-literal-sort-keys": false,
        "one-line": [
            false,
            "check-open-brace",
            "check-catch",
            "check-else",
            "check-whitespace"
        ],
        "prefer-const": true,
        "quotemark": [
            true,
            "single"
        ],
        "radix": true,
        "semicolon": [
            true,
            "always"
        ],
        "triple-equals": [
            true,
            "allow-null-check"
        ],
        "typedef-whitespace": [
            true,
            {
                "call-signature": "nospace",
                "index-signature": "nospace",
                "parameter": "nospace",
                "property-declaration": "nospace",
                "variable-declaration": "nospace"
            }
        ],
        "unified-signatures": true,
        "variable-name": false,
        "whitespace": [
            true,
            "check-decl",
            "check-operator",
            "check-separator",
            "check-type"
        ],
        "trailing-comma": [
            true,
            {
                "multiline": "always",
                "singleline": "never"
            }
        ],
        "arrow-parens": true,
        "await-promise": true,
        "interface-name": true,
        "new-parens": true,
        "newline-before-return": true,
        "newline-per-chained-call": true,
        "no-angle-bracket-type-assertion": true,
        "no-floating-promises": true,
        "only-arrow-functions": false,
        "number-literal-format": true,
        "promise-function-async": true,
        "return-undefined": true,
        "space-before-function-paren": [
            true,
            {
                "anonymous": "never",
                "asyncArrow": "always",
                "constructor": "never",
                "named": "never"
            }
        ],
        "space-within-parens": [
            true,
            "never"
        ],
        "switch-default": true,
        "typedef": true,
        "no-unexpected-multiline": true
    }
}
